Biostat 203B Homework 2
…
For each subject_id, let’s only keep the first ICU stay in the tibble icustays_tble. (Hint: slice_min and slice_max may take long. Think alternative ways to achieve the same function.)

icustays_tble<-
  icustays_tble %>%
  arrange(intime) %>%
  group_by(subject_id) %>%
  slice_head(n=1) %>%
  ungroup() %>%
  print(width=Inf)

# A tibble: 53,150 × 8
   subject_id  hadm_id  stay_id first_careunit                                  
        <dbl>    <dbl>    <dbl> <chr>                                           
 1   10000032 29079034 39553978 Medical Intensive Care Unit (MICU)              
 2   10000980 26913865 39765666 Medical Intensive Care Unit (MICU)              
 3   10001217 24597018 37067082 Surgical Intensive Care Unit (SICU)             
 4   10001725 25563031 31205490 Medical/Surgical Intensive Care Unit (MICU/SICU)
 5   10001884 26184834 37510196 Medical Intensive Care Unit (MICU)              
 6   10002013 23581541 39060235 Cardiac Vascular Intensive Care Unit (CVICU)    
 7   10002155 23822395 33685454 Coronary Care Unit (CCU)                        
 8   10002223 22494570 39638202 Trauma SICU (TSICU)                             
 9   10002348 22725460 32610785 Neuro Intermediate                              
10   10002428 28662225 33987268 Medical Intensive Care Unit (MICU)              
   last_careunit                                    intime             
   <chr>                                            <dttm>             
 1 Medical Intensive Care Unit (MICU)               2180-07-23 14:00:00
 2 Medical Intensive Care Unit (MICU)               2189-06-27 08:42:00
 3 Surgical Intensive Care Unit (SICU)              2157-11-20 19:18:02
 4 Medical/Surgical Intensive Care Unit (MICU/SICU) 2110-04-11 15:52:22
 5 Medical Intensive Care Unit (MICU)               2131-01-11 04:20:05
 6 Cardiac Vascular Intensive Care Unit (CVICU)     2160-05-18 10:00:53
 7 Coronary Care Unit (CCU)                         2129-08-04 12:45:00
 8 Trauma SICU (TSICU)                              2158-01-15 08:01:49
 9 Neuro Intermediate                               2112-11-30 23:24:00
10 Medical Intensive Care Unit (MICU)               2156-04-12 16:24:18
   outtime               los
   <dttm>              <dbl>
 1 2180-07-23 23:50:47 0.410
 2 2189-06-27 20:38:27 0.498
 3 2157-11-21 22:08:00 1.12 
 4 2110-04-12 23:59:56 1.34 
 5 2131-01-20 08:27:30 9.17 
 6 2160-05-19 17:33:33 1.31 
 7 2129-08-10 17:02:38 6.18 
 8 2158-01-16 15:19:24 1.30 
 9 2112-12-10 18:25:13 9.79 
10 2156-04-17 15:57:08 4.98 
# … with 53,140 more rows
…
:::

Import admissions.csv.gz as a tibble admissions_tble. ::: {.cell layout-align=“center”}

admissions_tble<-as_tibble(read_csv(str_c(mimic_path,'/core/admissions.csv.gz')))

:::

Let’s only keep the admissions that have a match in icustays_tble according to subject_id and hadmi_id.

print(semi_join(admissions_tble,icustays_tble,key=c("subject_id"="subject_id","hadmi_id"="hadmi_id")),width=Inf)

# A tibble: 53,150 × 15
   subject_id  hadm_id admittime           dischtime          
        <dbl>    <dbl> <dttm>              <dttm>             
 1   10222255 28200985 2120-11-20 20:25:00 2120-11-22 13:00:00
 2   14485852 28712010 2113-10-31 00:23:00 2113-11-04 16:50:00
 3   18709254 23758948 2195-10-12 01:31:00 2195-10-12 13:51:00
 4   16837807 23526268 2151-03-19 06:09:00 2151-03-19 07:20:00
 5   17642680 27734285 2116-05-29 12:48:00 2116-05-30 12:31:00
 6   18230965 21251728 2142-03-12 20:00:00 2142-03-17 15:26:00
 7   17374121 27667114 2115-07-22 07:15:00 2115-07-24 17:50:00
 8   13346506 28533404 2181-11-19 14:32:00 2181-11-22 18:47:00
 9   18030332 24679656 2152-07-22 21:28:00 2152-07-27 16:49:00
10   14328744 29576470 2126-08-20 09:26:00 2126-08-21 11:36:00
   deathtime           admission_type     admission_location    
   <dttm>              <chr>              <chr>                 
 1 NA                  EU OBSERVATION     TRANSFER FROM HOSPITAL
 2 NA                  EW EMER.           EMERGENCY ROOM        
 3 NA                  EU OBSERVATION     EMERGENCY ROOM        
 4 2151-03-19 07:20:00 EU OBSERVATION     EMERGENCY ROOM        
 5 NA                  EU OBSERVATION     WALK-IN/SELF REFERRAL 
 6 NA                  URGENT             PHYSICIAN REFERRAL    
 7 NA                  DIRECT OBSERVATION PHYSICIAN REFERRAL    
 8 NA                  EU OBSERVATION     EMERGENCY ROOM        
 9 NA                  URGENT             TRANSFER FROM HOSPITAL
10 NA                  EU OBSERVATION     EMERGENCY ROOM        
   discharge_location insurance language marital_status ethnicity
   <chr>              <chr>     <chr>    <chr>          <chr>    
 1 <NA>               Other     ENGLISH  MARRIED        WHITE    
 2 <NA>               Other     ENGLISH  SINGLE         WHITE    
 3 <NA>               Medicaid  ENGLISH  WIDOWED        ASIAN    
 4 <NA>               Medicare  ENGLISH  SINGLE         WHITE    
 5 <NA>               Other     ENGLISH  SINGLE         WHITE    
 6 HOME               Other     ENGLISH  MARRIED        WHITE    
 7 <NA>               Other     ENGLISH  MARRIED        WHITE    
 8 <NA>               Other     ENGLISH  MARRIED        WHITE    
 9 HOME               Other     ENGLISH  MARRIED        UNKNOWN  
10 <NA>               Other     ENGLISH  MARRIED        WHITE    
   edregtime           edouttime           hospital_expire_flag
   <dttm>              <dttm>                             <dbl>
 1 2120-11-20 18:07:00 2120-11-21 20:25:00                    0
 2 2113-10-30 19:48:00 2113-10-31 05:10:00                    0
 3 2195-10-11 18:40:00 2195-10-12 02:47:00                    0
 4 2151-03-19 02:55:00 2151-03-19 06:59:00                    1
 5 2116-05-29 10:05:00 2116-05-30 01:17:00                    0
 6 NA                  NA                                     0
 7 NA                  NA                                     0
 8 2181-11-19 10:51:00 2181-11-19 15:12:00                    0
 9 NA                  NA                                     0
10 2126-08-19 23:01:00 2126-08-20 10:14:00                    0
# … with 53,140 more rows
…
122103667 Lines. (wc -l will contains a built-in switch, -n, to remove newline)

We are interested in the lab measurements of creatinine (50912), potassium (50971), sodium (50983), chloride (50902), bicarbonate (50882), hematocrit (51221), white blood cell count (51301), and glucose (50931). Retrieve a subset of labevents.csv.gz only containing these items for the patients in icustays_tble as a tibble labevents_tble.

Hint: labevents.csv.gz is a data file too big to be read in by the read_csv function in its default setting. Utilize the col_select option in the read_csv function to reduce the memory burden. It took my computer 5-10 minutes to ingest this file. If your computer really has trouble importing labevents.csv.gz, you can import from the reduced data file labevents_filtered_itemid.csv.gz.

icustays_tble0<-as_tibble(read_csv(str_c(mimic_path,"/icu/icustays.csv.gz")))
labevents_tble0<-as_tibble(read_csv(str_c(mimic_path,"/hosp/labevents_filtered_itemid.csv.gz")),lazy=T,delim=',')

labevents_tble <-
  semi_join(labevents_tble0,icustays_tble0,by="subject_id") %>%
  filter(itemid %in% c(50912,50971,50983,50902,50882,51221,51301,50931)) %>% 
  print(Inf)

# A tibble: 13,926,853 × 4
   subject_id itemid charttime           valuenum
        <dbl>  <dbl> <dttm>                 <dbl>
 1   10003700  50882 2162-11-15 17:00:00     27  
 2   10003700  50902 2162-11-15 17:00:00    103  
 3   10003700  50912 2162-11-15 17:00:00      1  
 4   10003700  50931 2162-11-15 17:00:00     93  
 5   10003700  50971 2162-11-15 17:00:00      4.1
 6   10003700  50983 2162-11-15 17:00:00    141  
 7   10003700  51221 2162-11-15 17:00:00     40  
 8   10003700  51301 2162-11-15 17:00:00      6.7
 9   10003700  51221 2165-04-24 03:40:00     41  
10   10003700  51301 2165-04-24 03:40:00      5.8
# … with 13,926,843 more rows
…
  left_join(select(icustays_tble0, subject_id, intime, outtime),by="subject_id") %>%
  filter(intime<=charttime&charttime<=outtime) %>%
  group_by(subject_id,itemid) %>%
  arrange(charttime,by_group=T) %>%
  slice_head(n=1) %>%
  # important to take out before pivot_wider o/w multiple rows.
  ungroup() %>%
  select(-intime,-outtime,-charttime) %>%
  pivot_wider(names_from = itemid, values_from = valuenum) %>%
  rename('bicarbonate'='50882','creatinine'='50912','potassium'='50971',
         'sodium'='50983','chloride'='50902','hematocrit'='51221','n_wb_cell'='51301',
         'glucose'='50931') %>%
  print(width=Inf)

# A tibble: 51,892 × 9
   subject_id bicarbonate chloride creatinine glucose potassium sodium
        <dbl>       <dbl>    <dbl>      <dbl>   <dbl>     <dbl>  <dbl>
 1   10000032          21      102        0.5     115       4.7    132
 2   10001217          23      104        0.4     113       3.6    138
 3   10001725          24      106        0.8     146       3.9    140
 4   10001884          33       96        1.1     148       4      136
 5   10002013          23      109        1.1      98       4      140
 6   10002155          25      106        0.9      95       4.5    139
 7   10002223          26      102        0.8      88       3.9    138
 8   10002348          23      107        0.8     127       4.8    142
 9   10002428          20       98        0.8      99       3.9    129
10   10002430          22      105        2.2     128       3.8    144
   hematocrit n_wb_cell
        <dbl>     <dbl>
 1       NA        NA  
 2       33.6      19  
 3       39.1      17  
 4       36        18.4
 5       28.6      18.2
 6       37.9       5.5
 7       32.5      10.1
 8       39.3       4.3
 9       28.7      22.4
10       36.6      10.3
# … with 51,882 more rows
…
:::

We are interested in the vitals for ICU patients: heart rate (220045), mean non-invasive blood pressure (220181), systolic non-invasive blood pressure (220179), body temperature in Fahrenheit (223761), and respiratory rate (220210). Retrieve a subset of chartevents.csv.gz only containing these items for the patients in icustays_tble as a tibble chartevents_tble.

Hint: chartevents.csv.gz is a data file too big to be read in by the read_csv function in its default setting. Utilize the col_select option in the read_csv function to reduce the memory burden. It took my computer >15 minutes to ingest this file. If your computer really has trouble importing chartevents.csv.gz, you can import from the reduced data file chartevents_filtered_itemid.csv.gz.

chartevents_tble0<-
  as_tibble(read_csv(str_c(mimic_path, "/icu/chartevents_filtered_itemid.csv.gz")))

chartevents_tble<-
  filter(chartevents_tble0,itemid %in% c(220045,220181,220179,223761,220210)) %>%
  semi_join(icustays_tble,by='subject_id') %>%
  print(width=Inf)

# A tibble: 23,679,058 × 6
   subject_id  hadm_id  stay_id charttime           itemid valuenum
        <dbl>    <dbl>    <dbl> <dttm>               <dbl>    <dbl>
 1   10003700 28623837 30600691 2165-04-24 05:28:00 220179    152  
 2   10003700 28623837 30600691 2165-04-24 05:28:00 220181    110  
 3   10003700 28623837 30600691 2165-04-24 05:30:00 220045     65  
 4   10003700 28623837 30600691 2165-04-24 05:30:00 220210     14  
 5   10003700 28623837 30600691 2165-04-24 05:38:00 223761     97.6
 6   10003700 28623837 30600691 2165-04-24 06:00:00 220045     56  
 7   10003700 28623837 30600691 2165-04-24 06:00:00 220179    126  
 8   10003700 28623837 30600691 2165-04-24 06:00:00 220181     88  
 9   10003700 28623837 30600691 2165-04-24 06:00:00 220210     14  
10   10003700 28623837 30600691 2165-04-24 06:09:00 220045     55  
# … with 23,679,048 more rows
…
chartevents_tble1 <-
  chartevents_tble %>%
  left_join(select(icustays_tble, subject_id, intime, outtime),by="subject_id") %>%
  filter(intime<=charttime & charttime<=outtime) %>%
  group_by(subject_id,itemid) %>%
  arrange(charttime,by_group=T) %>%
  slice_head(n=1) %>%
  # important to take out before pivot_wider o/w multiple rows.
  ungroup() %>%
  select(-intime,-outtime,-charttime,-hadm_id,-stay_id) %>%
  pivot_wider(names_from = itemid, values_from = valuenum) %>%
  rename('heart_rate'='220045','ni_blood_pressure'='220181','sni_blood_pressure'='220179','body_temp'='223761','respiratory_rate'='220210') %>%
  print(width=Inf)

# A tibble: 53,136 × 6
   subject_id heart_rate sni_blood_pressure ni_blood_pressure respiratory_rate
        <dbl>      <dbl>              <dbl>             <dbl>            <dbl>
 1   10000032         91                 84                56               24
 2   10000980         77                150                92               23
 3   10001217         86                151               104               18
 4   10001725         55                 73                59               19
 5   10001884         38                180                46               10
 6   10002013         80                104                77               14
 7   10002155         68                126                78               18
 8   10002223        100                123                80               29
 9   10002348         72                129                85               14
10   10002428        124                 87                53               25
   body_temp
       <dbl>
 1      98.7
 2      98  
 3      98.5
 4      97.7
 5      98.1
 6      97.2
 7      95.9
 8      98.6
 9      97.9
10     103. 
# … with 53,126 more rows
…
